Spot Rate Curve Interpolation • fixedincome
…
refdate <- getdate("last bizday", Sys.Date(), "Brazil/ANBIMA")

In order to build a term structure formed only by futures maturities, the yield curve data and futures data have to be mixed and this is done with the rb3::yc_superset function. Once the superset is returned, the rows related to futures maturities can be filtered. The first term, usually 1 business day term, is also used to anchor the curve’s short part.

yc_ <- yc_get(refdate)
fut_ <- futures_get(refdate)
yc_ss <- yc_superset(yc_, fut_)
yc <- bind_rows(
  yc_ss |> slice(1),
  yc_ss |> filter(!is.na(symbol))
)

yc
#> # A tibble: 39 × 7
#>    refdate    cur_days biz_days forward_date r_252 r_360 symbol
#>    <date>        <int>    <dbl> <date>       <dbl> <dbl> <chr> 
#>  1 2022-07-14        1        1 2022-07-15   0.132 0     NA    
#>  2 2022-07-14       18       12 2022-08-01   0.132 0.125 DI1Q22
#>  3 2022-07-14       49       35 2022-09-01   0.134 0.137 DI1U22
#>  4 2022-07-14       81       56 2022-10-03   0.136 0.134 DI1V22
#>  5 2022-07-14      110       76 2022-11-01   0.137 0.135 DI1X22
#>  6 2022-07-14      140       96 2022-12-01   0.138 0.135 DI1Z22
#>  7 2022-07-14      172      118 2023-01-02   0.139 0.136 DI1F23
#>  8 2022-07-14      202      140 2023-02-01   0.140 0.138 DI1G23
#>  9 2022-07-14      230      158 2023-03-01   0.140 0.138 DI1H23
#> 10 2022-07-14      263      181 2023-04-03   0.141 0.138 DI1J23
#> # … with 29 more rows
…
